<!-- Generated by IcoMoon.io -->
<svg version="1.1" xmlns="http://www.w3.org/2000/svg" width="768" height="768" viewBox="0 0 768 768">
<title></title>
<g id="icomoon-ignore">
</g>
<path d="M672 288h-576c-17.664 0-32 14.336-32 32s14.336 32 32 32h576c17.664 0 32-14.336 32-32s-14.336-32-32-32zM672 160h-576c-17.664 0-32 14.336-32 32s14.336 32 32 32h576c17.664 0 32-14.336 32-32s-14.336-32-32-32zM672 416h-576c-17.664 0-32 14.336-32 32s14.336 32 32 32h576c17.664 0 32-14.336 32-32s-14.336-32-32-32zM672 544h-576c-17.664 0-32 14.336-32 32s14.336 32 32 32h576c17.664 0 32-14.336 32-32s-14.336-32-32-32z"></path>
</svg>
